// Jest Snapshot v1, https://goo.gl/fbAQLP

exports[`(Component) SoCratesDescription renders correctly 1`] = `
ShallowWrapper {
  "length": 1,
  Symbol(enzyme.__root__): [Circular],
  Symbol(enzyme.__unrendered__): <SocratesDescription />,
  Symbol(enzyme.__renderer__): Object {
    "batchedUpdates": [Function],
    "getNode": [Function],
    "render": [Function],
    "simulateEvent": [Function],
    "unmount": [Function],
  },
  Symbol(enzyme.__node__): Object {
    "instance": null,
    "key": undefined,
    "nodeType": "host",
    "props": Object {
      "children": Array [
        <div
          className="page-header"
        >
          <h2>
            SoCraTes in a nutshell
          </h2>
        </div>,
        <div>
          <p>
            This event is about the sustainable creation of useful software in a responsible way.
          </p>
        </div>,
        <div
          className="segment-header"
        >
          <h3>
            It's about People
          </h3>
        </div>,
        <div>
          <p>
            Everyone who is concerned with coding, testing, code quality, software craft, if
          </p>
          <ul>
            <li>
              you are passionate about software development and testing
            </li>
            <li>
              you have heard of Software Craft or even are already part of the growing community
            </li>
            <li>
              you want to share your knowledge, experience and expertise
            </li>
          </ul>
        </div>,
        <div
          className="segment-header"
        >
          <h3>
            It's about Action
          </h3>
        </div>,
        <div>
          <p>
            The event is run as a non-profit, low-cost event. It is a joint-effort of all 
            <a
              href="http://www.softwerkskammer.org/"
              rel="noopener noreferrer"
              target="_blank"
            >
              Softwerkskammer 
            </a>
            groups, the community of all German-speaking Software Craft groups. It will be much like a retreat. We will be there for 48 hours to collaborate and share ideas. There will be: 
          </p>
          <div
            className="bullet-points"
          >
            <ul>
              <li>
                Highly collaborative interactions
              </li>
              <li>
                A self-organized 
                <a
                  href="http://agilecoachcamp.org/tiki-index.php?page=OpenSpace"
                  rel="noopener noreferrer"
                  target="_blank"
                >
                  Open Space
                </a>
                , with
                <ul>
                  <li>
                    hands-on coding sessions
                  </li>
                  <li>
                    sessions focused on discussion
                  </li>
                  <li>
                    interactive talks
                  </li>
                  <li>
                    lots more
                  </li>
                </ul>
              </li>
            </ul>
          </div>
        </div>,
        <div
          className="segment-header"
        >
          <h3>
            It's about Fun
          </h3>
        </div>,
        <div>
          <p>
            We will not only spend the days together but also the nights. And – believe it or not – programmers are great company! There will be lots of opportunities to to have fun; starting with simple chit-chat about hiking to playing board games, dancing and any activity you can think of. 
          </p>
          <p>
            <Link
              className="btn btn-info"
              replace={false}
              title="Format"
              to="/format/#schedule"
            >
              <span
                className="fas fa-clock"
              />
               Check out the full schedule
            </Link>
          </p>
          <p>
            SoCraTes is an international conference, and the conference's language is English. We cordially ask you to keep all conversations in English, even for colloquial discussions.
          </p>
        </div>,
      ],
      "id": "socrates-description",
    },
    "ref": null,
    "rendered": Array [
      Object {
        "instance": null,
        "key": undefined,
        "nodeType": "host",
        "props": Object {
          "children": <h2>
            SoCraTes in a nutshell
          </h2>,
          "className": "page-header",
        },
        "ref": null,
        "rendered": Object {
          "instance": null,
          "key": undefined,
          "nodeType": "host",
          "props": Object {
            "children": "SoCraTes in a nutshell",
          },
          "ref": null,
          "rendered": "SoCraTes in a nutshell",
          "type": "h2",
        },
        "type": "div",
      },
      Object {
        "instance": null,
        "key": undefined,
        "nodeType": "host",
        "props": Object {
          "children": <p>
            This event is about the sustainable creation of useful software in a responsible way.
          </p>,
        },
        "ref": null,
        "rendered": Object {
          "instance": null,
          "key": undefined,
          "nodeType": "host",
          "props": Object {
            "children": "This event is about the sustainable creation of useful software in a responsible way.",
          },
          "ref": null,
          "rendered": "This event is about the sustainable creation of useful software in a responsible way.",
          "type": "p",
        },
        "type": "div",
      },
      Object {
        "instance": null,
        "key": undefined,
        "nodeType": "host",
        "props": Object {
          "children": <h3>
            It's about People
          </h3>,
          "className": "segment-header",
        },
        "ref": null,
        "rendered": Object {
          "instance": null,
          "key": undefined,
          "nodeType": "host",
          "props": Object {
            "children": "It's about People",
          },
          "ref": null,
          "rendered": "It's about People",
          "type": "h3",
        },
        "type": "div",
      },
      Object {
        "instance": null,
        "key": undefined,
        "nodeType": "host",
        "props": Object {
          "children": Array [
            <p>
              Everyone who is concerned with coding, testing, code quality, software craft, if
            </p>,
            <ul>
              <li>
                you are passionate about software development and testing
              </li>
              <li>
                you have heard of Software Craft or even are already part of the growing community
              </li>
              <li>
                you want to share your knowledge, experience and expertise
              </li>
            </ul>,
          ],
        },
        "ref": null,
        "rendered": Array [
          Object {
            "instance": null,
            "key": undefined,
            "nodeType": "host",
            "props": Object {
              "children": "Everyone who is concerned with coding, testing, code quality, software craft, if",
            },
            "ref": null,
            "rendered": "Everyone who is concerned with coding, testing, code quality, software craft, if",
            "type": "p",
          },
          Object {
            "instance": null,
            "key": undefined,
            "nodeType": "host",
            "props": Object {
              "children": Array [
                <li>
                  you are passionate about software development and testing
                </li>,
                <li>
                  you have heard of Software Craft or even are already part of the growing community
                </li>,
                <li>
                  you want to share your knowledge, experience and expertise
                </li>,
              ],
            },
            "ref": null,
            "rendered": Array [
              Object {
                "instance": null,
                "key": undefined,
                "nodeType": "host",
                "props": Object {
                  "children": "you are passionate about software development and testing",
                },
                "ref": null,
                "rendered": "you are passionate about software development and testing",
                "type": "li",
              },
              Object {
                "instance": null,
                "key": undefined,
                "nodeType": "host",
                "props": Object {
                  "children": "you have heard of Software Craft or even are already part of the growing community",
                },
                "ref": null,
                "rendered": "you have heard of Software Craft or even are already part of the growing community",
                "type": "li",
              },
              Object {
                "instance": null,
                "key": undefined,
                "nodeType": "host",
                "props": Object {
                  "children": "you want to share your knowledge, experience and expertise",
                },
                "ref": null,
                "rendered": "you want to share your knowledge, experience and expertise",
                "type": "li",
              },
            ],
            "type": "ul",
          },
        ],
        "type": "div",
      },
      Object {
        "instance": null,
        "key": undefined,
        "nodeType": "host",
        "props": Object {
          "children": <h3>
            It's about Action
          </h3>,
          "className": "segment-header",
        },
        "ref": null,
        "rendered": Object {
          "instance": null,
          "key": undefined,
          "nodeType": "host",
          "props": Object {
            "children": "It's about Action",
          },
          "ref": null,
          "rendered": "It's about Action",
          "type": "h3",
        },
        "type": "div",
      },
      Object {
        "instance": null,
        "key": undefined,
        "nodeType": "host",
        "props": Object {
          "children": Array [
            <p>
              The event is run as a non-profit, low-cost event. It is a joint-effort of all 
              <a
                href="http://www.softwerkskammer.org/"
                rel="noopener noreferrer"
                target="_blank"
              >
                Softwerkskammer 
              </a>
              groups, the community of all German-speaking Software Craft groups. It will be much like a retreat. We will be there for 48 hours to collaborate and share ideas. There will be: 
            </p>,
            <div
              className="bullet-points"
            >
              <ul>
                <li>
                  Highly collaborative interactions
                </li>
                <li>
                  A self-organized 
                  <a
                    href="http://agilecoachcamp.org/tiki-index.php?page=OpenSpace"
                    rel="noopener noreferrer"
                    target="_blank"
                  >
                    Open Space
                  </a>
                  , with
                  <ul>
                    <li>
                      hands-on coding sessions
                    </li>
                    <li>
                      sessions focused on discussion
                    </li>
                    <li>
                      interactive talks
                    </li>
                    <li>
                      lots more
                    </li>
                  </ul>
                </li>
              </ul>
            </div>,
          ],
        },
        "ref": null,
        "rendered": Array [
          Object {
            "instance": null,
            "key": undefined,
            "nodeType": "host",
            "props": Object {
              "children": Array [
                "The event is run as a non-profit, low-cost event. It is a joint-effort of all ",
                <a
                  href="http://www.softwerkskammer.org/"
                  rel="noopener noreferrer"
                  target="_blank"
                >
                  Softwerkskammer 
                </a>,
                "groups, the community of all German-speaking Software Craft groups. It will be much like a retreat. We will be there for 48 hours to collaborate and share ideas. There will be: ",
              ],
            },
            "ref": null,
            "rendered": Array [
              "The event is run as a non-profit, low-cost event. It is a joint-effort of all ",
              Object {
                "instance": null,
                "key": undefined,
                "nodeType": "host",
                "props": Object {
                  "children": "Softwerkskammer ",
                  "href": "http://www.softwerkskammer.org/",
                  "rel": "noopener noreferrer",
                  "target": "_blank",
                },
                "ref": null,
                "rendered": "Softwerkskammer ",
                "type": "a",
              },
              "groups, the community of all German-speaking Software Craft groups. It will be much like a retreat. We will be there for 48 hours to collaborate and share ideas. There will be: ",
            ],
            "type": "p",
          },
          Object {
            "instance": null,
            "key": undefined,
            "nodeType": "host",
            "props": Object {
              "children": <ul>
                <li>
                  Highly collaborative interactions
                </li>
                <li>
                  A self-organized 
                  <a
                    href="http://agilecoachcamp.org/tiki-index.php?page=OpenSpace"
                    rel="noopener noreferrer"
                    target="_blank"
                  >
                    Open Space
                  </a>
                  , with
                  <ul>
                    <li>
                      hands-on coding sessions
                    </li>
                    <li>
                      sessions focused on discussion
                    </li>
                    <li>
                      interactive talks
                    </li>
                    <li>
                      lots more
                    </li>
                  </ul>
                </li>
              </ul>,
              "className": "bullet-points",
            },
            "ref": null,
            "rendered": Object {
              "instance": null,
              "key": undefined,
              "nodeType": "host",
              "props": Object {
                "children": Array [
                  <li>
                    Highly collaborative interactions
                  </li>,
                  <li>
                    A self-organized 
                    <a
                      href="http://agilecoachcamp.org/tiki-index.php?page=OpenSpace"
                      rel="noopener noreferrer"
                      target="_blank"
                    >
                      Open Space
                    </a>
                    , with
                    <ul>
                      <li>
                        hands-on coding sessions
                      </li>
                      <li>
                        sessions focused on discussion
                      </li>
                      <li>
                        interactive talks
                      </li>
                      <li>
                        lots more
                      </li>
                    </ul>
                  </li>,
                ],
              },
              "ref": null,
              "rendered": Array [
                Object {
                  "instance": null,
                  "key": undefined,
                  "nodeType": "host",
                  "props": Object {
                    "children": "Highly collaborative interactions",
                  },
                  "ref": null,
                  "rendered": "Highly collaborative interactions",
                  "type": "li",
                },
                Object {
                  "instance": null,
                  "key": undefined,
                  "nodeType": "host",
                  "props": Object {
                    "children": Array [
                      "A self-organized ",
                      <a
                        href="http://agilecoachcamp.org/tiki-index.php?page=OpenSpace"
                        rel="noopener noreferrer"
                        target="_blank"
                      >
                        Open Space
                      </a>,
                      ", with",
                      <ul>
                        <li>
                          hands-on coding sessions
                        </li>
                        <li>
                          sessions focused on discussion
                        </li>
                        <li>
                          interactive talks
                        </li>
                        <li>
                          lots more
                        </li>
                      </ul>,
                    ],
                  },
                  "ref": null,
                  "rendered": Array [
                    "A self-organized ",
                    Object {
                      "instance": null,
                      "key": undefined,
                      "nodeType": "host",
                      "props": Object {
                        "children": "Open Space",
                        "href": "http://agilecoachcamp.org/tiki-index.php?page=OpenSpace",
                        "rel": "noopener noreferrer",
                        "target": "_blank",
                      },
                      "ref": null,
                      "rendered": "Open Space",
                      "type": "a",
                    },
                    ", with",
                    Object {
                      "instance": null,
                      "key": undefined,
                      "nodeType": "host",
                      "props": Object {
                        "children": Array [
                          <li>
                            hands-on coding sessions
                          </li>,
                          <li>
                            sessions focused on discussion
                          </li>,
                          <li>
                            interactive talks
                          </li>,
                          <li>
                            lots more
                          </li>,
                        ],
                      },
                      "ref": null,
                      "rendered": Array [
                        Object {
                          "instance": null,
                          "key": undefined,
                          "nodeType": "host",
                          "props": Object {
                            "children": "hands-on coding sessions",
                          },
                          "ref": null,
                          "rendered": "hands-on coding sessions",
                          "type": "li",
                        },
                        Object {
                          "instance": null,
                          "key": undefined,
                          "nodeType": "host",
                          "props": Object {
                            "children": "sessions focused on discussion",
                          },
                          "ref": null,
                          "rendered": "sessions focused on discussion",
                          "type": "li",
                        },
                        Object {
                          "instance": null,
                          "key": undefined,
                          "nodeType": "host",
                          "props": Object {
                            "children": "interactive talks",
                          },
                          "ref": null,
                          "rendered": "interactive talks",
                          "type": "li",
                        },
                        Object {
                          "instance": null,
                          "key": undefined,
                          "nodeType": "host",
                          "props": Object {
                            "children": "lots more",
                          },
                          "ref": null,
                          "rendered": "lots more",
                          "type": "li",
                        },
                      ],
                      "type": "ul",
                    },
                  ],
                  "type": "li",
                },
              ],
              "type": "ul",
            },
            "type": "div",
          },
        ],
        "type": "div",
      },
      Object {
        "instance": null,
        "key": undefined,
        "nodeType": "host",
        "props": Object {
          "children": <h3>
            It's about Fun
          </h3>,
          "className": "segment-header",
        },
        "ref": null,
        "rendered": Object {
          "instance": null,
          "key": undefined,
          "nodeType": "host",
          "props": Object {
            "children": "It's about Fun",
          },
          "ref": null,
          "rendered": "It's about Fun",
          "type": "h3",
        },
        "type": "div",
      },
      Object {
        "instance": null,
        "key": undefined,
        "nodeType": "host",
        "props": Object {
          "children": Array [
            <p>
              We will not only spend the days together but also the nights. And – believe it or not – programmers are great company! There will be lots of opportunities to to have fun; starting with simple chit-chat about hiking to playing board games, dancing and any activity you can think of. 
            </p>,
            <p>
              <Link
                className="btn btn-info"
                replace={false}
                title="Format"
                to="/format/#schedule"
              >
                <span
                  className="fas fa-clock"
                />
                 Check out the full schedule
              </Link>
            </p>,
            <p>
              SoCraTes is an international conference, and the conference's language is English. We cordially ask you to keep all conversations in English, even for colloquial discussions.
            </p>,
          ],
        },
        "ref": null,
        "rendered": Array [
          Object {
            "instance": null,
            "key": undefined,
            "nodeType": "host",
            "props": Object {
              "children": "We will not only spend the days together but also the nights. And – believe it or not – programmers are great company! There will be lots of opportunities to to have fun; starting with simple chit-chat about hiking to playing board games, dancing and any activity you can think of. ",
            },
            "ref": null,
            "rendered": "We will not only spend the days together but also the nights. And – believe it or not – programmers are great company! There will be lots of opportunities to to have fun; starting with simple chit-chat about hiking to playing board games, dancing and any activity you can think of. ",
            "type": "p",
          },
          Object {
            "instance": null,
            "key": undefined,
            "nodeType": "host",
            "props": Object {
              "children": <Link
                className="btn btn-info"
                replace={false}
                title="Format"
                to="/format/#schedule"
              >
                <span
                  className="fas fa-clock"
                />
                 Check out the full schedule
              </Link>,
            },
            "ref": null,
            "rendered": Object {
              "instance": null,
              "key": undefined,
              "nodeType": "class",
              "props": Object {
                "children": Array [
                  <span
                    className="fas fa-clock"
                  />,
                  " Check out the full schedule",
                ],
                "className": "btn btn-info",
                "replace": false,
                "title": "Format",
                "to": "/format/#schedule",
              },
              "ref": null,
              "rendered": Array [
                Object {
                  "instance": null,
                  "key": undefined,
                  "nodeType": "host",
                  "props": Object {
                    "className": "fas fa-clock",
                  },
                  "ref": null,
                  "rendered": null,
                  "type": "span",
                },
                " Check out the full schedule",
              ],
              "type": [Function],
            },
            "type": "p",
          },
          Object {
            "instance": null,
            "key": undefined,
            "nodeType": "host",
            "props": Object {
              "children": "SoCraTes is an international conference, and the conference's language is English. We cordially ask you to keep all conversations in English, even for colloquial discussions.",
            },
            "ref": null,
            "rendered": "SoCraTes is an international conference, and the conference's language is English. We cordially ask you to keep all conversations in English, even for colloquial discussions.",
            "type": "p",
          },
        ],
        "type": "div",
      },
    ],
    "type": "div",
  },
  Symbol(enzyme.__nodes__): Array [
    Object {
      "instance": null,
      "key": undefined,
      "nodeType": "host",
      "props": Object {
        "children": Array [
          <div
            className="page-header"
          >
            <h2>
              SoCraTes in a nutshell
            </h2>
          </div>,
          <div>
            <p>
              This event is about the sustainable creation of useful software in a responsible way.
            </p>
          </div>,
          <div
            className="segment-header"
          >
            <h3>
              It's about People
            </h3>
          </div>,
          <div>
            <p>
              Everyone who is concerned with coding, testing, code quality, software craft, if
            </p>
            <ul>
              <li>
                you are passionate about software development and testing
              </li>
              <li>
                you have heard of Software Craft or even are already part of the growing community
              </li>
              <li>
                you want to share your knowledge, experience and expertise
              </li>
            </ul>
          </div>,
          <div
            className="segment-header"
          >
            <h3>
              It's about Action
            </h3>
          </div>,
          <div>
            <p>
              The event is run as a non-profit, low-cost event. It is a joint-effort of all 
              <a
                href="http://www.softwerkskammer.org/"
                rel="noopener noreferrer"
                target="_blank"
              >
                Softwerkskammer 
              </a>
              groups, the community of all German-speaking Software Craft groups. It will be much like a retreat. We will be there for 48 hours to collaborate and share ideas. There will be: 
            </p>
            <div
              className="bullet-points"
            >
              <ul>
                <li>
                  Highly collaborative interactions
                </li>
                <li>
                  A self-organized 
                  <a
                    href="http://agilecoachcamp.org/tiki-index.php?page=OpenSpace"
                    rel="noopener noreferrer"
                    target="_blank"
                  >
                    Open Space
                  </a>
                  , with
                  <ul>
                    <li>
                      hands-on coding sessions
                    </li>
                    <li>
                      sessions focused on discussion
                    </li>
                    <li>
                      interactive talks
                    </li>
                    <li>
                      lots more
                    </li>
                  </ul>
                </li>
              </ul>
            </div>
          </div>,
          <div
            className="segment-header"
          >
            <h3>
              It's about Fun
            </h3>
          </div>,
          <div>
            <p>
              We will not only spend the days together but also the nights. And – believe it or not – programmers are great company! There will be lots of opportunities to to have fun; starting with simple chit-chat about hiking to playing board games, dancing and any activity you can think of. 
            </p>
            <p>
              <Link
                className="btn btn-info"
                replace={false}
                title="Format"
                to="/format/#schedule"
              >
                <span
                  className="fas fa-clock"
                />
                 Check out the full schedule
              </Link>
            </p>
            <p>
              SoCraTes is an international conference, and the conference's language is English. We cordially ask you to keep all conversations in English, even for colloquial discussions.
            </p>
          </div>,
        ],
        "id": "socrates-description",
      },
      "ref": null,
      "rendered": Array [
        Object {
          "instance": null,
          "key": undefined,
          "nodeType": "host",
          "props": Object {
            "children": <h2>
              SoCraTes in a nutshell
            </h2>,
            "className": "page-header",
          },
          "ref": null,
          "rendered": Object {
            "instance": null,
            "key": undefined,
            "nodeType": "host",
            "props": Object {
              "children": "SoCraTes in a nutshell",
            },
            "ref": null,
            "rendered": "SoCraTes in a nutshell",
            "type": "h2",
          },
          "type": "div",
        },
        Object {
          "instance": null,
          "key": undefined,
          "nodeType": "host",
          "props": Object {
            "children": <p>
              This event is about the sustainable creation of useful software in a responsible way.
            </p>,
          },
          "ref": null,
          "rendered": Object {
            "instance": null,
            "key": undefined,
            "nodeType": "host",
            "props": Object {
              "children": "This event is about the sustainable creation of useful software in a responsible way.",
            },
            "ref": null,
            "rendered": "This event is about the sustainable creation of useful software in a responsible way.",
            "type": "p",
          },
          "type": "div",
        },
        Object {
          "instance": null,
          "key": undefined,
          "nodeType": "host",
          "props": Object {
            "children": <h3>
              It's about People
            </h3>,
            "className": "segment-header",
          },
          "ref": null,
          "rendered": Object {
            "instance": null,
            "key": undefined,
            "nodeType": "host",
            "props": Object {
              "children": "It's about People",
            },
            "ref": null,
            "rendered": "It's about People",
            "type": "h3",
          },
          "type": "div",
        },
        Object {
          "instance": null,
          "key": undefined,
          "nodeType": "host",
          "props": Object {
            "children": Array [
              <p>
                Everyone who is concerned with coding, testing, code quality, software craft, if
              </p>,
              <ul>
                <li>
                  you are passionate about software development and testing
                </li>
                <li>
                  you have heard of Software Craft or even are already part of the growing community
                </li>
                <li>
                  you want to share your knowledge, experience and expertise
                </li>
              </ul>,
            ],
          },
          "ref": null,
          "rendered": Array [
            Object {
              "instance": null,
              "key": undefined,
              "nodeType": "host",
              "props": Object {
                "children": "Everyone who is concerned with coding, testing, code quality, software craft, if",
              },
              "ref": null,
              "rendered": "Everyone who is concerned with coding, testing, code quality, software craft, if",
              "type": "p",
            },
            Object {
              "instance": null,
              "key": undefined,
              "nodeType": "host",
              "props": Object {
                "children": Array [
                  <li>
                    you are passionate about software development and testing
                  </li>,
                  <li>
                    you have heard of Software Craft or even are already part of the growing community
                  </li>,
                  <li>
                    you want to share your knowledge, experience and expertise
                  </li>,
                ],
              },
              "ref": null,
              "rendered": Array [
                Object {
                  "instance": null,
                  "key": undefined,
                  "nodeType": "host",
                  "props": Object {
                    "children": "you are passionate about software development and testing",
                  },
                  "ref": null,
                  "rendered": "you are passionate about software development and testing",
                  "type": "li",
                },
                Object {
                  "instance": null,
                  "key": undefined,
                  "nodeType": "host",
                  "props": Object {
                    "children": "you have heard of Software Craft or even are already part of the growing community",
                  },
                  "ref": null,
                  "rendered": "you have heard of Software Craft or even are already part of the growing community",
                  "type": "li",
                },
                Object {
                  "instance": null,
                  "key": undefined,
                  "nodeType": "host",
                  "props": Object {
                    "children": "you want to share your knowledge, experience and expertise",
                  },
                  "ref": null,
                  "rendered": "you want to share your knowledge, experience and expertise",
                  "type": "li",
                },
              ],
              "type": "ul",
            },
          ],
          "type": "div",
        },
        Object {
          "instance": null,
          "key": undefined,
          "nodeType": "host",
          "props": Object {
            "children": <h3>
              It's about Action
            </h3>,
            "className": "segment-header",
          },
          "ref": null,
          "rendered": Object {
            "instance": null,
            "key": undefined,
            "nodeType": "host",
            "props": Object {
              "children": "It's about Action",
            },
            "ref": null,
            "rendered": "It's about Action",
            "type": "h3",
          },
          "type": "div",
        },
        Object {
          "instance": null,
          "key": undefined,
          "nodeType": "host",
          "props": Object {
            "children": Array [
              <p>
                The event is run as a non-profit, low-cost event. It is a joint-effort of all 
                <a
                  href="http://www.softwerkskammer.org/"
                  rel="noopener noreferrer"
                  target="_blank"
                >
                  Softwerkskammer 
                </a>
                groups, the community of all German-speaking Software Craft groups. It will be much like a retreat. We will be there for 48 hours to collaborate and share ideas. There will be: 
              </p>,
              <div
                className="bullet-points"
              >
                <ul>
                  <li>
                    Highly collaborative interactions
                  </li>
                  <li>
                    A self-organized 
                    <a
                      href="http://agilecoachcamp.org/tiki-index.php?page=OpenSpace"
                      rel="noopener noreferrer"
                      target="_blank"
                    >
                      Open Space
                    </a>
                    , with
                    <ul>
                      <li>
                        hands-on coding sessions
                      </li>
                      <li>
                        sessions focused on discussion
                      </li>
                      <li>
                        interactive talks
                      </li>
                      <li>
                        lots more
                      </li>
                    </ul>
                  </li>
                </ul>
              </div>,
            ],
          },
          "ref": null,
          "rendered": Array [
            Object {
              "instance": null,
              "key": undefined,
              "nodeType": "host",
              "props": Object {
                "children": Array [
                  "The event is run as a non-profit, low-cost event. It is a joint-effort of all ",
                  <a
                    href="http://www.softwerkskammer.org/"
                    rel="noopener noreferrer"
                    target="_blank"
                  >
                    Softwerkskammer 
                  </a>,
                  "groups, the community of all German-speaking Software Craft groups. It will be much like a retreat. We will be there for 48 hours to collaborate and share ideas. There will be: ",
                ],
              },
              "ref": null,
              "rendered": Array [
                "The event is run as a non-profit, low-cost event. It is a joint-effort of all ",
                Object {
                  "instance": null,
                  "key": undefined,
                  "nodeType": "host",
                  "props": Object {
                    "children": "Softwerkskammer ",
                    "href": "http://www.softwerkskammer.org/",
                    "rel": "noopener noreferrer",
                    "target": "_blank",
                  },
                  "ref": null,
                  "rendered": "Softwerkskammer ",
                  "type": "a",
                },
                "groups, the community of all German-speaking Software Craft groups. It will be much like a retreat. We will be there for 48 hours to collaborate and share ideas. There will be: ",
              ],
              "type": "p",
            },
            Object {
              "instance": null,
              "key": undefined,
              "nodeType": "host",
              "props": Object {
                "children": <ul>
                  <li>
                    Highly collaborative interactions
                  </li>
                  <li>
                    A self-organized 
                    <a
                      href="http://agilecoachcamp.org/tiki-index.php?page=OpenSpace"
                      rel="noopener noreferrer"
                      target="_blank"
                    >
                      Open Space
                    </a>
                    , with
                    <ul>
                      <li>
                        hands-on coding sessions
                      </li>
                      <li>
                        sessions focused on discussion
                      </li>
                      <li>
                        interactive talks
                      </li>
                      <li>
                        lots more
                      </li>
                    </ul>
                  </li>
                </ul>,
                "className": "bullet-points",
              },
              "ref": null,
              "rendered": Object {
                "instance": null,
                "key": undefined,
                "nodeType": "host",
                "props": Object {
                  "children": Array [
                    <li>
                      Highly collaborative interactions
                    </li>,
                    <li>
                      A self-organized 
                      <a
                        href="http://agilecoachcamp.org/tiki-index.php?page=OpenSpace"
                        rel="noopener noreferrer"
                        target="_blank"
                      >
                        Open Space
                      </a>
                      , with
                      <ul>
                        <li>
                          hands-on coding sessions
                        </li>
                        <li>
                          sessions focused on discussion
                        </li>
                        <li>
                          interactive talks
                        </li>
                        <li>
                          lots more
                        </li>
                      </ul>
                    </li>,
                  ],
                },
                "ref": null,
                "rendered": Array [
                  Object {
                    "instance": null,
                    "key": undefined,
                    "nodeType": "host",
                    "props": Object {
                      "children": "Highly collaborative interactions",
                    },
                    "ref": null,
                    "rendered": "Highly collaborative interactions",
                    "type": "li",
                  },
                  Object {
                    "instance": null,
                    "key": undefined,
                    "nodeType": "host",
                    "props": Object {
                      "children": Array [
                        "A self-organized ",
                        <a
                          href="http://agilecoachcamp.org/tiki-index.php?page=OpenSpace"
                          rel="noopener noreferrer"
                          target="_blank"
                        >
                          Open Space
                        </a>,
                        ", with",
                        <ul>
                          <li>
                            hands-on coding sessions
                          </li>
                          <li>
                            sessions focused on discussion
                          </li>
                          <li>
                            interactive talks
                          </li>
                          <li>
                            lots more
                          </li>
                        </ul>,
                      ],
                    },
                    "ref": null,
                    "rendered": Array [
                      "A self-organized ",
                      Object {
                        "instance": null,
                        "key": undefined,
                        "nodeType": "host",
                        "props": Object {
                          "children": "Open Space",
                          "href": "http://agilecoachcamp.org/tiki-index.php?page=OpenSpace",
                          "rel": "noopener noreferrer",
                          "target": "_blank",
                        },
                        "ref": null,
                        "rendered": "Open Space",
                        "type": "a",
                      },
                      ", with",
                      Object {
                        "instance": null,
                        "key": undefined,
                        "nodeType": "host",
                        "props": Object {
                          "children": Array [
                            <li>
                              hands-on coding sessions
                            </li>,
                            <li>
                              sessions focused on discussion
                            </li>,
                            <li>
                              interactive talks
                            </li>,
                            <li>
                              lots more
                            </li>,
                          ],
                        },
                        "ref": null,
                        "rendered": Array [
                          Object {
                            "instance": null,
                            "key": undefined,
                            "nodeType": "host",
                            "props": Object {
                              "children": "hands-on coding sessions",
                            },
                            "ref": null,
                            "rendered": "hands-on coding sessions",
                            "type": "li",
                          },
                          Object {
                            "instance": null,
                            "key": undefined,
                            "nodeType": "host",
                            "props": Object {
                              "children": "sessions focused on discussion",
                            },
                            "ref": null,
                            "rendered": "sessions focused on discussion",
                            "type": "li",
                          },
                          Object {
                            "instance": null,
                            "key": undefined,
                            "nodeType": "host",
                            "props": Object {
                              "children": "interactive talks",
                            },
                            "ref": null,
                            "rendered": "interactive talks",
                            "type": "li",
                          },
                          Object {
                            "instance": null,
                            "key": undefined,
                            "nodeType": "host",
                            "props": Object {
                              "children": "lots more",
                            },
                            "ref": null,
                            "rendered": "lots more",
                            "type": "li",
                          },
                        ],
                        "type": "ul",
                      },
                    ],
                    "type": "li",
                  },
                ],
                "type": "ul",
              },
              "type": "div",
            },
          ],
          "type": "div",
        },
        Object {
          "instance": null,
          "key": undefined,
          "nodeType": "host",
          "props": Object {
            "children": <h3>
              It's about Fun
            </h3>,
            "className": "segment-header",
          },
          "ref": null,
          "rendered": Object {
            "instance": null,
            "key": undefined,
            "nodeType": "host",
            "props": Object {
              "children": "It's about Fun",
            },
            "ref": null,
            "rendered": "It's about Fun",
            "type": "h3",
          },
          "type": "div",
        },
        Object {
          "instance": null,
          "key": undefined,
          "nodeType": "host",
          "props": Object {
            "children": Array [
              <p>
                We will not only spend the days together but also the nights. And – believe it or not – programmers are great company! There will be lots of opportunities to to have fun; starting with simple chit-chat about hiking to playing board games, dancing and any activity you can think of. 
              </p>,
              <p>
                <Link
                  className="btn btn-info"
                  replace={false}
                  title="Format"
                  to="/format/#schedule"
                >
                  <span
                    className="fas fa-clock"
                  />
                   Check out the full schedule
                </Link>
              </p>,
              <p>
                SoCraTes is an international conference, and the conference's language is English. We cordially ask you to keep all conversations in English, even for colloquial discussions.
              </p>,
            ],
          },
          "ref": null,
          "rendered": Array [
            Object {
              "instance": null,
              "key": undefined,
              "nodeType": "host",
              "props": Object {
                "children": "We will not only spend the days together but also the nights. And – believe it or not – programmers are great company! There will be lots of opportunities to to have fun; starting with simple chit-chat about hiking to playing board games, dancing and any activity you can think of. ",
              },
              "ref": null,
              "rendered": "We will not only spend the days together but also the nights. And – believe it or not – programmers are great company! There will be lots of opportunities to to have fun; starting with simple chit-chat about hiking to playing board games, dancing and any activity you can think of. ",
              "type": "p",
            },
            Object {
              "instance": null,
              "key": undefined,
              "nodeType": "host",
              "props": Object {
                "children": <Link
                  className="btn btn-info"
                  replace={false}
                  title="Format"
                  to="/format/#schedule"
                >
                  <span
                    className="fas fa-clock"
                  />
                   Check out the full schedule
                </Link>,
              },
              "ref": null,
              "rendered": Object {
                "instance": null,
                "key": undefined,
                "nodeType": "class",
                "props": Object {
                  "children": Array [
                    <span
                      className="fas fa-clock"
                    />,
                    " Check out the full schedule",
                  ],
                  "className": "btn btn-info",
                  "replace": false,
                  "title": "Format",
                  "to": "/format/#schedule",
                },
                "ref": null,
                "rendered": Array [
                  Object {
                    "instance": null,
                    "key": undefined,
                    "nodeType": "host",
                    "props": Object {
                      "className": "fas fa-clock",
                    },
                    "ref": null,
                    "rendered": null,
                    "type": "span",
                  },
                  " Check out the full schedule",
                ],
                "type": [Function],
              },
              "type": "p",
            },
            Object {
              "instance": null,
              "key": undefined,
              "nodeType": "host",
              "props": Object {
                "children": "SoCraTes is an international conference, and the conference's language is English. We cordially ask you to keep all conversations in English, even for colloquial discussions.",
              },
              "ref": null,
              "rendered": "SoCraTes is an international conference, and the conference's language is English. We cordially ask you to keep all conversations in English, even for colloquial discussions.",
              "type": "p",
            },
          ],
          "type": "div",
        },
      ],
      "type": "div",
    },
  ],
  Symbol(enzyme.__options__): Object {
    "adapter": ReactSixteenAdapter {
      "options": Object {
        "enableComponentDidUpdateOnSetState": true,
      },
    },
  },
}
`;
