// Jest Snapshot v1, https://goo.gl/fbAQLP

exports[`(Component) Dropdown toggler renders correctly 1`] = `
ShallowWrapper {
  "length": 1,
  Symbol(enzyme.__root__): [Circular],
  Symbol(enzyme.__unrendered__): <DropdownToggler
    iconClass="iconClass"
    target="target"
    title="Title"
    url="#navigation"
  />,
  Symbol(enzyme.__renderer__): Object {
    "batchedUpdates": [Function],
    "getNode": [Function],
    "render": [Function],
    "simulateEvent": [Function],
    "unmount": [Function],
  },
  Symbol(enzyme.__node__): Object {
    "instance": null,
    "key": undefined,
    "nodeType": "host",
    "props": Object {
      "aria-expanded": "false",
      "aria-haspopup": "true",
      "children": Array [
        <span
          className="iconClass"
        />,
        <span
          className="d-md-none d-lg-none d-xl-inline"
        >
           
          Title
        </span>,
      ],
      "className": "nav-link dropdown-toggle",
      "data-toggle": "dropdown",
      "href": "#navigation",
      "id": "target",
    },
    "ref": null,
    "rendered": Array [
      Object {
        "instance": null,
        "key": undefined,
        "nodeType": "host",
        "props": Object {
          "className": "iconClass",
        },
        "ref": null,
        "rendered": null,
        "type": "span",
      },
      Object {
        "instance": null,
        "key": undefined,
        "nodeType": "host",
        "props": Object {
          "children": Array [
            " ",
            "Title",
          ],
          "className": "d-md-none d-lg-none d-xl-inline",
        },
        "ref": null,
        "rendered": Array [
          " ",
          "Title",
        ],
        "type": "span",
      },
    ],
    "type": "a",
  },
  Symbol(enzyme.__nodes__): Array [
    Object {
      "instance": null,
      "key": undefined,
      "nodeType": "host",
      "props": Object {
        "aria-expanded": "false",
        "aria-haspopup": "true",
        "children": Array [
          <span
            className="iconClass"
          />,
          <span
            className="d-md-none d-lg-none d-xl-inline"
          >
             
            Title
          </span>,
        ],
        "className": "nav-link dropdown-toggle",
        "data-toggle": "dropdown",
        "href": "#navigation",
        "id": "target",
      },
      "ref": null,
      "rendered": Array [
        Object {
          "instance": null,
          "key": undefined,
          "nodeType": "host",
          "props": Object {
            "className": "iconClass",
          },
          "ref": null,
          "rendered": null,
          "type": "span",
        },
        Object {
          "instance": null,
          "key": undefined,
          "nodeType": "host",
          "props": Object {
            "children": Array [
              " ",
              "Title",
            ],
            "className": "d-md-none d-lg-none d-xl-inline",
          },
          "ref": null,
          "rendered": Array [
            " ",
            "Title",
          ],
          "type": "span",
        },
      ],
      "type": "a",
    },
  ],
  Symbol(enzyme.__options__): Object {
    "adapter": ReactSixteenAdapter {
      "options": Object {
        "enableComponentDidUpdateOnSetState": true,
      },
    },
  },
}
`;
