// Jest Snapshot v1, https://goo.gl/fbAQLP

exports[`(Component) ApplicationDescriptionItem renders correctly 1`] = `
ShallowWrapper {
  "length": 1,
  Symbol(enzyme.__root__): [Circular],
  Symbol(enzyme.__unrendered__): <AccordionItem
    content="Content"
    index="0"
    parentId="parent"
    title="Title"
  />,
  Symbol(enzyme.__renderer__): Object {
    "batchedUpdates": [Function],
    "getNode": [Function],
    "render": [Function],
    "simulateEvent": [Function],
    "unmount": [Function],
  },
  Symbol(enzyme.__node__): Object {
    "instance": null,
    "key": undefined,
    "nodeType": "host",
    "props": Object {
      "children": Array [
        <div
          className="card-header"
          id="parent-item-0-header"
        >
          <h4
            className="mb-0"
          >
            <button
              aria-controls="parent-item-0"
              aria-expanded="false"
              className="btn btn-link"
              data-target="#parent-item-0"
              data-toggle="collapse"
            >
              Title
            </button>
          </h4>
        </div>,
        <div
          aria-labelledby="headerparent-item-0"
          className="collapse"
          data-parent="#parent"
          id="parent-item-0"
        >
          <div
            className="card-body"
          >
            Content
          </div>
        </div>,
      ],
      "className": "card border-secondary",
    },
    "ref": null,
    "rendered": Array [
      Object {
        "instance": null,
        "key": undefined,
        "nodeType": "host",
        "props": Object {
          "children": <h4
            className="mb-0"
          >
            <button
              aria-controls="parent-item-0"
              aria-expanded="false"
              className="btn btn-link"
              data-target="#parent-item-0"
              data-toggle="collapse"
            >
              Title
            </button>
          </h4>,
          "className": "card-header",
          "id": "parent-item-0-header",
        },
        "ref": null,
        "rendered": Object {
          "instance": null,
          "key": undefined,
          "nodeType": "host",
          "props": Object {
            "children": <button
              aria-controls="parent-item-0"
              aria-expanded="false"
              className="btn btn-link"
              data-target="#parent-item-0"
              data-toggle="collapse"
            >
              Title
            </button>,
            "className": "mb-0",
          },
          "ref": null,
          "rendered": Object {
            "instance": null,
            "key": undefined,
            "nodeType": "host",
            "props": Object {
              "aria-controls": "parent-item-0",
              "aria-expanded": "false",
              "children": "Title",
              "className": "btn btn-link",
              "data-target": "#parent-item-0",
              "data-toggle": "collapse",
            },
            "ref": null,
            "rendered": "Title",
            "type": "button",
          },
          "type": "h4",
        },
        "type": "div",
      },
      Object {
        "instance": null,
        "key": undefined,
        "nodeType": "host",
        "props": Object {
          "aria-labelledby": "headerparent-item-0",
          "children": <div
            className="card-body"
          >
            Content
          </div>,
          "className": "collapse",
          "data-parent": "#parent",
          "id": "parent-item-0",
        },
        "ref": null,
        "rendered": Object {
          "instance": null,
          "key": undefined,
          "nodeType": "host",
          "props": Object {
            "children": "Content",
            "className": "card-body",
          },
          "ref": null,
          "rendered": "Content",
          "type": "div",
        },
        "type": "div",
      },
    ],
    "type": "div",
  },
  Symbol(enzyme.__nodes__): Array [
    Object {
      "instance": null,
      "key": undefined,
      "nodeType": "host",
      "props": Object {
        "children": Array [
          <div
            className="card-header"
            id="parent-item-0-header"
          >
            <h4
              className="mb-0"
            >
              <button
                aria-controls="parent-item-0"
                aria-expanded="false"
                className="btn btn-link"
                data-target="#parent-item-0"
                data-toggle="collapse"
              >
                Title
              </button>
            </h4>
          </div>,
          <div
            aria-labelledby="headerparent-item-0"
            className="collapse"
            data-parent="#parent"
            id="parent-item-0"
          >
            <div
              className="card-body"
            >
              Content
            </div>
          </div>,
        ],
        "className": "card border-secondary",
      },
      "ref": null,
      "rendered": Array [
        Object {
          "instance": null,
          "key": undefined,
          "nodeType": "host",
          "props": Object {
            "children": <h4
              className="mb-0"
            >
              <button
                aria-controls="parent-item-0"
                aria-expanded="false"
                className="btn btn-link"
                data-target="#parent-item-0"
                data-toggle="collapse"
              >
                Title
              </button>
            </h4>,
            "className": "card-header",
            "id": "parent-item-0-header",
          },
          "ref": null,
          "rendered": Object {
            "instance": null,
            "key": undefined,
            "nodeType": "host",
            "props": Object {
              "children": <button
                aria-controls="parent-item-0"
                aria-expanded="false"
                className="btn btn-link"
                data-target="#parent-item-0"
                data-toggle="collapse"
              >
                Title
              </button>,
              "className": "mb-0",
            },
            "ref": null,
            "rendered": Object {
              "instance": null,
              "key": undefined,
              "nodeType": "host",
              "props": Object {
                "aria-controls": "parent-item-0",
                "aria-expanded": "false",
                "children": "Title",
                "className": "btn btn-link",
                "data-target": "#parent-item-0",
                "data-toggle": "collapse",
              },
              "ref": null,
              "rendered": "Title",
              "type": "button",
            },
            "type": "h4",
          },
          "type": "div",
        },
        Object {
          "instance": null,
          "key": undefined,
          "nodeType": "host",
          "props": Object {
            "aria-labelledby": "headerparent-item-0",
            "children": <div
              className="card-body"
            >
              Content
            </div>,
            "className": "collapse",
            "data-parent": "#parent",
            "id": "parent-item-0",
          },
          "ref": null,
          "rendered": Object {
            "instance": null,
            "key": undefined,
            "nodeType": "host",
            "props": Object {
              "children": "Content",
              "className": "card-body",
            },
            "ref": null,
            "rendered": "Content",
            "type": "div",
          },
          "type": "div",
        },
      ],
      "type": "div",
    },
  ],
  Symbol(enzyme.__options__): Object {
    "adapter": ReactSixteenAdapter {
      "options": Object {
        "enableComponentDidUpdateOnSetState": true,
      },
    },
  },
}
`;
