// Jest Snapshot v1, https://goo.gl/fbAQLP

exports[`NewsletterSignUpContainer when receiving props should render with message 1`] = `
ShallowWrapper {
  "length": 1,
  Symbol(enzyme.__root__): [Circular],
  Symbol(enzyme.__unrendered__): <NewsletterSignUpContainer
    message="We're sorry you're leaving. You have successfully signed out of the SoCraTes Germany newsletter."
  />,
  Symbol(enzyme.__renderer__): Object {
    "batchedUpdates": [Function],
    "getNode": [Function],
    "render": [Function],
    "simulateEvent": [Function],
    "unmount": [Function],
  },
  Symbol(enzyme.__node__): Object {
    "instance": null,
    "key": undefined,
    "nodeType": "host",
    "props": Object {
      "children": <NewsletterSignUpForm
        dataPrivacyConfirmedChange={[Function]}
        email=""
        hasValidEmail={false}
        hasValidName={false}
        isDataPrivacyConfirmedChecked={false}
        isDisabled={true}
        message=""
        name=""
        onEmailChange={[Function]}
        onNameChange={[Function]}
        onSubmit={[Function]}
      />,
      "id": "newsletter",
    },
    "ref": null,
    "rendered": Object {
      "instance": null,
      "key": undefined,
      "nodeType": "function",
      "props": Object {
        "dataPrivacyConfirmedChange": [Function],
        "email": "",
        "hasValidEmail": false,
        "hasValidName": false,
        "isDataPrivacyConfirmedChecked": false,
        "isDisabled": true,
        "message": "",
        "name": "",
        "onEmailChange": [Function],
        "onNameChange": [Function],
        "onSubmit": [Function],
      },
      "ref": null,
      "rendered": null,
      "type": [Function],
    },
    "type": "div",
  },
  Symbol(enzyme.__nodes__): Array [
    Object {
      "instance": null,
      "key": undefined,
      "nodeType": "host",
      "props": Object {
        "children": <NewsletterSignUpForm
          dataPrivacyConfirmedChange={[Function]}
          email=""
          hasValidEmail={false}
          hasValidName={false}
          isDataPrivacyConfirmedChecked={false}
          isDisabled={true}
          message=""
          name=""
          onEmailChange={[Function]}
          onNameChange={[Function]}
          onSubmit={[Function]}
        />,
        "id": "newsletter",
      },
      "ref": null,
      "rendered": Object {
        "instance": null,
        "key": undefined,
        "nodeType": "function",
        "props": Object {
          "dataPrivacyConfirmedChange": [Function],
          "email": "",
          "hasValidEmail": false,
          "hasValidName": false,
          "isDataPrivacyConfirmedChecked": false,
          "isDisabled": true,
          "message": "",
          "name": "",
          "onEmailChange": [Function],
          "onNameChange": [Function],
          "onSubmit": [Function],
        },
        "ref": null,
        "rendered": null,
        "type": [Function],
      },
      "type": "div",
    },
  ],
  Symbol(enzyme.__options__): Object {
    "adapter": ReactSixteenAdapter {
      "options": Object {
        "enableComponentDidUpdateOnSetState": true,
      },
    },
  },
}
`;
