// Jest Snapshot v1, https://goo.gl/fbAQLP

exports[`(Component) Home renders correctly 1`] = `
ShallowWrapper {
  "length": 1,
  Symbol(enzyme.__root__): [Circular],
  Symbol(enzyme.__unrendered__): <Home />,
  Symbol(enzyme.__renderer__): Object {
    "batchedUpdates": [Function],
    "getNode": [Function],
    "render": [Function],
    "simulateEvent": [Function],
    "unmount": [Function],
  },
  Symbol(enzyme.__node__): Object {
    "instance": null,
    "key": undefined,
    "nodeType": "host",
    "props": Object {
      "children": <div
        className="row"
      >
        <div
          className="col-sm-8"
        >
          <div
            className="row column-left"
          >
            <div
              className="col-xs-12"
            >
              <SocratesDescription />
            </div>
          </div>
          <div
            className="row column-left"
          >
            <div
              className="col-xs-12"
            >
              <Connect(NewsletterSignUpContainer) />
            </div>
          </div>
          <div
            className="row column-left"
          >
            <div
              className="col-xs-12"
            >
              <PartnerConferences
                conferences={
                  Array [
                    Object {
                      "description": "Santiago de Chile",
                      "name": "SoCraTes Chile",
                      "url": "http://www.socrates-conference.cl/",
                    },
                    Object {
                      "description": "12 - 15 April 2018, Gran Canaria, Spain",
                      "name": "SoCraTes Canaries",
                      "url": "http://www.socracan.com",
                    },
                    Object {
                      "description": "24 - 26 May 2018, Rimini, Italy",
                      "name": "SoCraTes Italy",
                      "url": "http://www.socrates-conference.it/",
                    },
                    Object {
                      "description": "7 – 10 June 2018, Dorking, England",
                      "name": "SoCraTes UK",
                      "url": "http://socratesuk.org/",
                    },
                    Object {
                      "description": "Atlanta, GA, USA",
                      "name": "Software Craftsmanship Unconference",
                      "url": "http://scunconf.com/",
                    },
                    Object {
                      "description": "Munich, Germany",
                      "name": "JS CraftCamp",
                      "url": "http://jscraftcamp.org",
                    },
                    Object {
                      "description": "21 September 2018, Zurich, Switzerland",
                      "name": "SoCraTes Day Switzerland",
                      "url": "http://socrates-day.ch/",
                    },
                    Object {
                      "description": "Linz, Austria",
                      "name": "SoCraTes Days Linz",
                      "url": "http://socrates-conference.at/",
                    },
                    Object {
                      "description": "Rochegude, France",
                      "name": "SoCraTes France",
                      "url": "http://socrates-fr.github.io",
                    },
                    Object {
                      "description": "La Roche-en-Ardenne, Belgium",
                      "name": "SoCraTes BE",
                      "url": "http://socratesbe.org",
                    },
                    Object {
                      "description": "Kiilopää, Finland",
                      "name": "CodeFreeze",
                      "url": "http://www.codefreeze.fi/",
                    },
                    Object {
                      "description": "15 - 18 March 2018, Ftan, Switzerland",
                      "name": "SoCraTes Conference Switzerland",
                      "url": "http://socrates-ch.org/",
                    },
                    Object {
                      "description": "7 - 8 June 2018, Bucharest, Romania",
                      "name": "I T.A.K.E. Unconference",
                      "url": "http://itakeunconf.com/",
                    },
                  ]
                }
              />
            </div>
          </div>
        </div>
        <div
          className="logocolumn col-sm-4 col-md-3 col-lg-4 col-md-offset-1 col-lg-offset-0"
        >
          <div
            className="sidebar"
          >
            <Sponsoring />
          </div>
        </div>
      </div>,
      "className": "container",
    },
    "ref": null,
    "rendered": Object {
      "instance": null,
      "key": undefined,
      "nodeType": "host",
      "props": Object {
        "children": Array [
          <div
            className="col-sm-8"
          >
            <div
              className="row column-left"
            >
              <div
                className="col-xs-12"
              >
                <SocratesDescription />
              </div>
            </div>
            <div
              className="row column-left"
            >
              <div
                className="col-xs-12"
              >
                <Connect(NewsletterSignUpContainer) />
              </div>
            </div>
            <div
              className="row column-left"
            >
              <div
                className="col-xs-12"
              >
                <PartnerConferences
                  conferences={
                    Array [
                      Object {
                        "description": "Santiago de Chile",
                        "name": "SoCraTes Chile",
                        "url": "http://www.socrates-conference.cl/",
                      },
                      Object {
                        "description": "12 - 15 April 2018, Gran Canaria, Spain",
                        "name": "SoCraTes Canaries",
                        "url": "http://www.socracan.com",
                      },
                      Object {
                        "description": "24 - 26 May 2018, Rimini, Italy",
                        "name": "SoCraTes Italy",
                        "url": "http://www.socrates-conference.it/",
                      },
                      Object {
                        "description": "7 – 10 June 2018, Dorking, England",
                        "name": "SoCraTes UK",
                        "url": "http://socratesuk.org/",
                      },
                      Object {
                        "description": "Atlanta, GA, USA",
                        "name": "Software Craftsmanship Unconference",
                        "url": "http://scunconf.com/",
                      },
                      Object {
                        "description": "Munich, Germany",
                        "name": "JS CraftCamp",
                        "url": "http://jscraftcamp.org",
                      },
                      Object {
                        "description": "21 September 2018, Zurich, Switzerland",
                        "name": "SoCraTes Day Switzerland",
                        "url": "http://socrates-day.ch/",
                      },
                      Object {
                        "description": "Linz, Austria",
                        "name": "SoCraTes Days Linz",
                        "url": "http://socrates-conference.at/",
                      },
                      Object {
                        "description": "Rochegude, France",
                        "name": "SoCraTes France",
                        "url": "http://socrates-fr.github.io",
                      },
                      Object {
                        "description": "La Roche-en-Ardenne, Belgium",
                        "name": "SoCraTes BE",
                        "url": "http://socratesbe.org",
                      },
                      Object {
                        "description": "Kiilopää, Finland",
                        "name": "CodeFreeze",
                        "url": "http://www.codefreeze.fi/",
                      },
                      Object {
                        "description": "15 - 18 March 2018, Ftan, Switzerland",
                        "name": "SoCraTes Conference Switzerland",
                        "url": "http://socrates-ch.org/",
                      },
                      Object {
                        "description": "7 - 8 June 2018, Bucharest, Romania",
                        "name": "I T.A.K.E. Unconference",
                        "url": "http://itakeunconf.com/",
                      },
                    ]
                  }
                />
              </div>
            </div>
          </div>,
          <div
            className="logocolumn col-sm-4 col-md-3 col-lg-4 col-md-offset-1 col-lg-offset-0"
          >
            <div
              className="sidebar"
            >
              <Sponsoring />
            </div>
          </div>,
        ],
        "className": "row",
      },
      "ref": null,
      "rendered": Array [
        Object {
          "instance": null,
          "key": undefined,
          "nodeType": "host",
          "props": Object {
            "children": Array [
              <div
                className="row column-left"
              >
                <div
                  className="col-xs-12"
                >
                  <SocratesDescription />
                </div>
              </div>,
              <div
                className="row column-left"
              >
                <div
                  className="col-xs-12"
                >
                  <Connect(NewsletterSignUpContainer) />
                </div>
              </div>,
              <div
                className="row column-left"
              >
                <div
                  className="col-xs-12"
                >
                  <PartnerConferences
                    conferences={
                      Array [
                        Object {
                          "description": "Santiago de Chile",
                          "name": "SoCraTes Chile",
                          "url": "http://www.socrates-conference.cl/",
                        },
                        Object {
                          "description": "12 - 15 April 2018, Gran Canaria, Spain",
                          "name": "SoCraTes Canaries",
                          "url": "http://www.socracan.com",
                        },
                        Object {
                          "description": "24 - 26 May 2018, Rimini, Italy",
                          "name": "SoCraTes Italy",
                          "url": "http://www.socrates-conference.it/",
                        },
                        Object {
                          "description": "7 – 10 June 2018, Dorking, England",
                          "name": "SoCraTes UK",
                          "url": "http://socratesuk.org/",
                        },
                        Object {
                          "description": "Atlanta, GA, USA",
                          "name": "Software Craftsmanship Unconference",
                          "url": "http://scunconf.com/",
                        },
                        Object {
                          "description": "Munich, Germany",
                          "name": "JS CraftCamp",
                          "url": "http://jscraftcamp.org",
                        },
                        Object {
                          "description": "21 September 2018, Zurich, Switzerland",
                          "name": "SoCraTes Day Switzerland",
                          "url": "http://socrates-day.ch/",
                        },
                        Object {
                          "description": "Linz, Austria",
                          "name": "SoCraTes Days Linz",
                          "url": "http://socrates-conference.at/",
                        },
                        Object {
                          "description": "Rochegude, France",
                          "name": "SoCraTes France",
                          "url": "http://socrates-fr.github.io",
                        },
                        Object {
                          "description": "La Roche-en-Ardenne, Belgium",
                          "name": "SoCraTes BE",
                          "url": "http://socratesbe.org",
                        },
                        Object {
                          "description": "Kiilopää, Finland",
                          "name": "CodeFreeze",
                          "url": "http://www.codefreeze.fi/",
                        },
                        Object {
                          "description": "15 - 18 March 2018, Ftan, Switzerland",
                          "name": "SoCraTes Conference Switzerland",
                          "url": "http://socrates-ch.org/",
                        },
                        Object {
                          "description": "7 - 8 June 2018, Bucharest, Romania",
                          "name": "I T.A.K.E. Unconference",
                          "url": "http://itakeunconf.com/",
                        },
                      ]
                    }
                  />
                </div>
              </div>,
            ],
            "className": "col-sm-8",
          },
          "ref": null,
          "rendered": Array [
            Object {
              "instance": null,
              "key": undefined,
              "nodeType": "host",
              "props": Object {
                "children": <div
                  className="col-xs-12"
                >
                  <SocratesDescription />
                </div>,
                "className": "row column-left",
              },
              "ref": null,
              "rendered": Object {
                "instance": null,
                "key": undefined,
                "nodeType": "host",
                "props": Object {
                  "children": <SocratesDescription />,
                  "className": "col-xs-12",
                },
                "ref": null,
                "rendered": Object {
                  "instance": null,
                  "key": undefined,
                  "nodeType": "function",
                  "props": Object {},
                  "ref": null,
                  "rendered": null,
                  "type": [Function],
                },
                "type": "div",
              },
              "type": "div",
            },
            Object {
              "instance": null,
              "key": undefined,
              "nodeType": "host",
              "props": Object {
                "children": <div
                  className="col-xs-12"
                >
                  <Connect(NewsletterSignUpContainer) />
                </div>,
                "className": "row column-left",
              },
              "ref": null,
              "rendered": Object {
                "instance": null,
                "key": undefined,
                "nodeType": "host",
                "props": Object {
                  "children": <Connect(NewsletterSignUpContainer) />,
                  "className": "col-xs-12",
                },
                "ref": null,
                "rendered": Object {
                  "instance": null,
                  "key": undefined,
                  "nodeType": "class",
                  "props": Object {},
                  "ref": null,
                  "rendered": null,
                  "type": [Function],
                },
                "type": "div",
              },
              "type": "div",
            },
            Object {
              "instance": null,
              "key": undefined,
              "nodeType": "host",
              "props": Object {
                "children": <div
                  className="col-xs-12"
                >
                  <PartnerConferences
                    conferences={
                      Array [
                        Object {
                          "description": "Santiago de Chile",
                          "name": "SoCraTes Chile",
                          "url": "http://www.socrates-conference.cl/",
                        },
                        Object {
                          "description": "12 - 15 April 2018, Gran Canaria, Spain",
                          "name": "SoCraTes Canaries",
                          "url": "http://www.socracan.com",
                        },
                        Object {
                          "description": "24 - 26 May 2018, Rimini, Italy",
                          "name": "SoCraTes Italy",
                          "url": "http://www.socrates-conference.it/",
                        },
                        Object {
                          "description": "7 – 10 June 2018, Dorking, England",
                          "name": "SoCraTes UK",
                          "url": "http://socratesuk.org/",
                        },
                        Object {
                          "description": "Atlanta, GA, USA",
                          "name": "Software Craftsmanship Unconference",
                          "url": "http://scunconf.com/",
                        },
                        Object {
                          "description": "Munich, Germany",
                          "name": "JS CraftCamp",
                          "url": "http://jscraftcamp.org",
                        },
                        Object {
                          "description": "21 September 2018, Zurich, Switzerland",
                          "name": "SoCraTes Day Switzerland",
                          "url": "http://socrates-day.ch/",
                        },
                        Object {
                          "description": "Linz, Austria",
                          "name": "SoCraTes Days Linz",
                          "url": "http://socrates-conference.at/",
                        },
                        Object {
                          "description": "Rochegude, France",
                          "name": "SoCraTes France",
                          "url": "http://socrates-fr.github.io",
                        },
                        Object {
                          "description": "La Roche-en-Ardenne, Belgium",
                          "name": "SoCraTes BE",
                          "url": "http://socratesbe.org",
                        },
                        Object {
                          "description": "Kiilopää, Finland",
                          "name": "CodeFreeze",
                          "url": "http://www.codefreeze.fi/",
                        },
                        Object {
                          "description": "15 - 18 March 2018, Ftan, Switzerland",
                          "name": "SoCraTes Conference Switzerland",
                          "url": "http://socrates-ch.org/",
                        },
                        Object {
                          "description": "7 - 8 June 2018, Bucharest, Romania",
                          "name": "I T.A.K.E. Unconference",
                          "url": "http://itakeunconf.com/",
                        },
                      ]
                    }
                  />
                </div>,
                "className": "row column-left",
              },
              "ref": null,
              "rendered": Object {
                "instance": null,
                "key": undefined,
                "nodeType": "host",
                "props": Object {
                  "children": <PartnerConferences
                    conferences={
                      Array [
                        Object {
                          "description": "Santiago de Chile",
                          "name": "SoCraTes Chile",
                          "url": "http://www.socrates-conference.cl/",
                        },
                        Object {
                          "description": "12 - 15 April 2018, Gran Canaria, Spain",
                          "name": "SoCraTes Canaries",
                          "url": "http://www.socracan.com",
                        },
                        Object {
                          "description": "24 - 26 May 2018, Rimini, Italy",
                          "name": "SoCraTes Italy",
                          "url": "http://www.socrates-conference.it/",
                        },
                        Object {
                          "description": "7 – 10 June 2018, Dorking, England",
                          "name": "SoCraTes UK",
                          "url": "http://socratesuk.org/",
                        },
                        Object {
                          "description": "Atlanta, GA, USA",
                          "name": "Software Craftsmanship Unconference",
                          "url": "http://scunconf.com/",
                        },
                        Object {
                          "description": "Munich, Germany",
                          "name": "JS CraftCamp",
                          "url": "http://jscraftcamp.org",
                        },
                        Object {
                          "description": "21 September 2018, Zurich, Switzerland",
                          "name": "SoCraTes Day Switzerland",
                          "url": "http://socrates-day.ch/",
                        },
                        Object {
                          "description": "Linz, Austria",
                          "name": "SoCraTes Days Linz",
                          "url": "http://socrates-conference.at/",
                        },
                        Object {
                          "description": "Rochegude, France",
                          "name": "SoCraTes France",
                          "url": "http://socrates-fr.github.io",
                        },
                        Object {
                          "description": "La Roche-en-Ardenne, Belgium",
                          "name": "SoCraTes BE",
                          "url": "http://socratesbe.org",
                        },
                        Object {
                          "description": "Kiilopää, Finland",
                          "name": "CodeFreeze",
                          "url": "http://www.codefreeze.fi/",
                        },
                        Object {
                          "description": "15 - 18 March 2018, Ftan, Switzerland",
                          "name": "SoCraTes Conference Switzerland",
                          "url": "http://socrates-ch.org/",
                        },
                        Object {
                          "description": "7 - 8 June 2018, Bucharest, Romania",
                          "name": "I T.A.K.E. Unconference",
                          "url": "http://itakeunconf.com/",
                        },
                      ]
                    }
                  />,
                  "className": "col-xs-12",
                },
                "ref": null,
                "rendered": Object {
                  "instance": null,
                  "key": undefined,
                  "nodeType": "function",
                  "props": Object {
                    "conferences": Array [
                      Object {
                        "description": "Santiago de Chile",
                        "name": "SoCraTes Chile",
                        "url": "http://www.socrates-conference.cl/",
                      },
                      Object {
                        "description": "12 - 15 April 2018, Gran Canaria, Spain",
                        "name": "SoCraTes Canaries",
                        "url": "http://www.socracan.com",
                      },
                      Object {
                        "description": "24 - 26 May 2018, Rimini, Italy",
                        "name": "SoCraTes Italy",
                        "url": "http://www.socrates-conference.it/",
                      },
                      Object {
                        "description": "7 – 10 June 2018, Dorking, England",
                        "name": "SoCraTes UK",
                        "url": "http://socratesuk.org/",
                      },
                      Object {
                        "description": "Atlanta, GA, USA",
                        "name": "Software Craftsmanship Unconference",
                        "url": "http://scunconf.com/",
                      },
                      Object {
                        "description": "Munich, Germany",
                        "name": "JS CraftCamp",
                        "url": "http://jscraftcamp.org",
                      },
                      Object {
                        "description": "21 September 2018, Zurich, Switzerland",
                        "name": "SoCraTes Day Switzerland",
                        "url": "http://socrates-day.ch/",
                      },
                      Object {
                        "description": "Linz, Austria",
                        "name": "SoCraTes Days Linz",
                        "url": "http://socrates-conference.at/",
                      },
                      Object {
                        "description": "Rochegude, France",
                        "name": "SoCraTes France",
                        "url": "http://socrates-fr.github.io",
                      },
                      Object {
                        "description": "La Roche-en-Ardenne, Belgium",
                        "name": "SoCraTes BE",
                        "url": "http://socratesbe.org",
                      },
                      Object {
                        "description": "Kiilopää, Finland",
                        "name": "CodeFreeze",
                        "url": "http://www.codefreeze.fi/",
                      },
                      Object {
                        "description": "15 - 18 March 2018, Ftan, Switzerland",
                        "name": "SoCraTes Conference Switzerland",
                        "url": "http://socrates-ch.org/",
                      },
                      Object {
                        "description": "7 - 8 June 2018, Bucharest, Romania",
                        "name": "I T.A.K.E. Unconference",
                        "url": "http://itakeunconf.com/",
                      },
                    ],
                  },
                  "ref": null,
                  "rendered": null,
                  "type": [Function],
                },
                "type": "div",
              },
              "type": "div",
            },
          ],
          "type": "div",
        },
        Object {
          "instance": null,
          "key": undefined,
          "nodeType": "host",
          "props": Object {
            "children": <div
              className="sidebar"
            >
              <Sponsoring />
            </div>,
            "className": "logocolumn col-sm-4 col-md-3 col-lg-4 col-md-offset-1 col-lg-offset-0",
          },
          "ref": null,
          "rendered": Object {
            "instance": null,
            "key": undefined,
            "nodeType": "host",
            "props": Object {
              "children": <Sponsoring />,
              "className": "sidebar",
            },
            "ref": null,
            "rendered": Object {
              "instance": null,
              "key": undefined,
              "nodeType": "function",
              "props": Object {},
              "ref": null,
              "rendered": null,
              "type": [Function],
            },
            "type": "div",
          },
          "type": "div",
        },
      ],
      "type": "div",
    },
    "type": "div",
  },
  Symbol(enzyme.__nodes__): Array [
    Object {
      "instance": null,
      "key": undefined,
      "nodeType": "host",
      "props": Object {
        "children": <div
          className="row"
        >
          <div
            className="col-sm-8"
          >
            <div
              className="row column-left"
            >
              <div
                className="col-xs-12"
              >
                <SocratesDescription />
              </div>
            </div>
            <div
              className="row column-left"
            >
              <div
                className="col-xs-12"
              >
                <Connect(NewsletterSignUpContainer) />
              </div>
            </div>
            <div
              className="row column-left"
            >
              <div
                className="col-xs-12"
              >
                <PartnerConferences
                  conferences={
                    Array [
                      Object {
                        "description": "Santiago de Chile",
                        "name": "SoCraTes Chile",
                        "url": "http://www.socrates-conference.cl/",
                      },
                      Object {
                        "description": "12 - 15 April 2018, Gran Canaria, Spain",
                        "name": "SoCraTes Canaries",
                        "url": "http://www.socracan.com",
                      },
                      Object {
                        "description": "24 - 26 May 2018, Rimini, Italy",
                        "name": "SoCraTes Italy",
                        "url": "http://www.socrates-conference.it/",
                      },
                      Object {
                        "description": "7 – 10 June 2018, Dorking, England",
                        "name": "SoCraTes UK",
                        "url": "http://socratesuk.org/",
                      },
                      Object {
                        "description": "Atlanta, GA, USA",
                        "name": "Software Craftsmanship Unconference",
                        "url": "http://scunconf.com/",
                      },
                      Object {
                        "description": "Munich, Germany",
                        "name": "JS CraftCamp",
                        "url": "http://jscraftcamp.org",
                      },
                      Object {
                        "description": "21 September 2018, Zurich, Switzerland",
                        "name": "SoCraTes Day Switzerland",
                        "url": "http://socrates-day.ch/",
                      },
                      Object {
                        "description": "Linz, Austria",
                        "name": "SoCraTes Days Linz",
                        "url": "http://socrates-conference.at/",
                      },
                      Object {
                        "description": "Rochegude, France",
                        "name": "SoCraTes France",
                        "url": "http://socrates-fr.github.io",
                      },
                      Object {
                        "description": "La Roche-en-Ardenne, Belgium",
                        "name": "SoCraTes BE",
                        "url": "http://socratesbe.org",
                      },
                      Object {
                        "description": "Kiilopää, Finland",
                        "name": "CodeFreeze",
                        "url": "http://www.codefreeze.fi/",
                      },
                      Object {
                        "description": "15 - 18 March 2018, Ftan, Switzerland",
                        "name": "SoCraTes Conference Switzerland",
                        "url": "http://socrates-ch.org/",
                      },
                      Object {
                        "description": "7 - 8 June 2018, Bucharest, Romania",
                        "name": "I T.A.K.E. Unconference",
                        "url": "http://itakeunconf.com/",
                      },
                    ]
                  }
                />
              </div>
            </div>
          </div>
          <div
            className="logocolumn col-sm-4 col-md-3 col-lg-4 col-md-offset-1 col-lg-offset-0"
          >
            <div
              className="sidebar"
            >
              <Sponsoring />
            </div>
          </div>
        </div>,
        "className": "container",
      },
      "ref": null,
      "rendered": Object {
        "instance": null,
        "key": undefined,
        "nodeType": "host",
        "props": Object {
          "children": Array [
            <div
              className="col-sm-8"
            >
              <div
                className="row column-left"
              >
                <div
                  className="col-xs-12"
                >
                  <SocratesDescription />
                </div>
              </div>
              <div
                className="row column-left"
              >
                <div
                  className="col-xs-12"
                >
                  <Connect(NewsletterSignUpContainer) />
                </div>
              </div>
              <div
                className="row column-left"
              >
                <div
                  className="col-xs-12"
                >
                  <PartnerConferences
                    conferences={
                      Array [
                        Object {
                          "description": "Santiago de Chile",
                          "name": "SoCraTes Chile",
                          "url": "http://www.socrates-conference.cl/",
                        },
                        Object {
                          "description": "12 - 15 April 2018, Gran Canaria, Spain",
                          "name": "SoCraTes Canaries",
                          "url": "http://www.socracan.com",
                        },
                        Object {
                          "description": "24 - 26 May 2018, Rimini, Italy",
                          "name": "SoCraTes Italy",
                          "url": "http://www.socrates-conference.it/",
                        },
                        Object {
                          "description": "7 – 10 June 2018, Dorking, England",
                          "name": "SoCraTes UK",
                          "url": "http://socratesuk.org/",
                        },
                        Object {
                          "description": "Atlanta, GA, USA",
                          "name": "Software Craftsmanship Unconference",
                          "url": "http://scunconf.com/",
                        },
                        Object {
                          "description": "Munich, Germany",
                          "name": "JS CraftCamp",
                          "url": "http://jscraftcamp.org",
                        },
                        Object {
                          "description": "21 September 2018, Zurich, Switzerland",
                          "name": "SoCraTes Day Switzerland",
                          "url": "http://socrates-day.ch/",
                        },
                        Object {
                          "description": "Linz, Austria",
                          "name": "SoCraTes Days Linz",
                          "url": "http://socrates-conference.at/",
                        },
                        Object {
                          "description": "Rochegude, France",
                          "name": "SoCraTes France",
                          "url": "http://socrates-fr.github.io",
                        },
                        Object {
                          "description": "La Roche-en-Ardenne, Belgium",
                          "name": "SoCraTes BE",
                          "url": "http://socratesbe.org",
                        },
                        Object {
                          "description": "Kiilopää, Finland",
                          "name": "CodeFreeze",
                          "url": "http://www.codefreeze.fi/",
                        },
                        Object {
                          "description": "15 - 18 March 2018, Ftan, Switzerland",
                          "name": "SoCraTes Conference Switzerland",
                          "url": "http://socrates-ch.org/",
                        },
                        Object {
                          "description": "7 - 8 June 2018, Bucharest, Romania",
                          "name": "I T.A.K.E. Unconference",
                          "url": "http://itakeunconf.com/",
                        },
                      ]
                    }
                  />
                </div>
              </div>
            </div>,
            <div
              className="logocolumn col-sm-4 col-md-3 col-lg-4 col-md-offset-1 col-lg-offset-0"
            >
              <div
                className="sidebar"
              >
                <Sponsoring />
              </div>
            </div>,
          ],
          "className": "row",
        },
        "ref": null,
        "rendered": Array [
          Object {
            "instance": null,
            "key": undefined,
            "nodeType": "host",
            "props": Object {
              "children": Array [
                <div
                  className="row column-left"
                >
                  <div
                    className="col-xs-12"
                  >
                    <SocratesDescription />
                  </div>
                </div>,
                <div
                  className="row column-left"
                >
                  <div
                    className="col-xs-12"
                  >
                    <Connect(NewsletterSignUpContainer) />
                  </div>
                </div>,
                <div
                  className="row column-left"
                >
                  <div
                    className="col-xs-12"
                  >
                    <PartnerConferences
                      conferences={
                        Array [
                          Object {
                            "description": "Santiago de Chile",
                            "name": "SoCraTes Chile",
                            "url": "http://www.socrates-conference.cl/",
                          },
                          Object {
                            "description": "12 - 15 April 2018, Gran Canaria, Spain",
                            "name": "SoCraTes Canaries",
                            "url": "http://www.socracan.com",
                          },
                          Object {
                            "description": "24 - 26 May 2018, Rimini, Italy",
                            "name": "SoCraTes Italy",
                            "url": "http://www.socrates-conference.it/",
                          },
                          Object {
                            "description": "7 – 10 June 2018, Dorking, England",
                            "name": "SoCraTes UK",
                            "url": "http://socratesuk.org/",
                          },
                          Object {
                            "description": "Atlanta, GA, USA",
                            "name": "Software Craftsmanship Unconference",
                            "url": "http://scunconf.com/",
                          },
                          Object {
                            "description": "Munich, Germany",
                            "name": "JS CraftCamp",
                            "url": "http://jscraftcamp.org",
                          },
                          Object {
                            "description": "21 September 2018, Zurich, Switzerland",
                            "name": "SoCraTes Day Switzerland",
                            "url": "http://socrates-day.ch/",
                          },
                          Object {
                            "description": "Linz, Austria",
                            "name": "SoCraTes Days Linz",
                            "url": "http://socrates-conference.at/",
                          },
                          Object {
                            "description": "Rochegude, France",
                            "name": "SoCraTes France",
                            "url": "http://socrates-fr.github.io",
                          },
                          Object {
                            "description": "La Roche-en-Ardenne, Belgium",
                            "name": "SoCraTes BE",
                            "url": "http://socratesbe.org",
                          },
                          Object {
                            "description": "Kiilopää, Finland",
                            "name": "CodeFreeze",
                            "url": "http://www.codefreeze.fi/",
                          },
                          Object {
                            "description": "15 - 18 March 2018, Ftan, Switzerland",
                            "name": "SoCraTes Conference Switzerland",
                            "url": "http://socrates-ch.org/",
                          },
                          Object {
                            "description": "7 - 8 June 2018, Bucharest, Romania",
                            "name": "I T.A.K.E. Unconference",
                            "url": "http://itakeunconf.com/",
                          },
                        ]
                      }
                    />
                  </div>
                </div>,
              ],
              "className": "col-sm-8",
            },
            "ref": null,
            "rendered": Array [
              Object {
                "instance": null,
                "key": undefined,
                "nodeType": "host",
                "props": Object {
                  "children": <div
                    className="col-xs-12"
                  >
                    <SocratesDescription />
                  </div>,
                  "className": "row column-left",
                },
                "ref": null,
                "rendered": Object {
                  "instance": null,
                  "key": undefined,
                  "nodeType": "host",
                  "props": Object {
                    "children": <SocratesDescription />,
                    "className": "col-xs-12",
                  },
                  "ref": null,
                  "rendered": Object {
                    "instance": null,
                    "key": undefined,
                    "nodeType": "function",
                    "props": Object {},
                    "ref": null,
                    "rendered": null,
                    "type": [Function],
                  },
                  "type": "div",
                },
                "type": "div",
              },
              Object {
                "instance": null,
                "key": undefined,
                "nodeType": "host",
                "props": Object {
                  "children": <div
                    className="col-xs-12"
                  >
                    <Connect(NewsletterSignUpContainer) />
                  </div>,
                  "className": "row column-left",
                },
                "ref": null,
                "rendered": Object {
                  "instance": null,
                  "key": undefined,
                  "nodeType": "host",
                  "props": Object {
                    "children": <Connect(NewsletterSignUpContainer) />,
                    "className": "col-xs-12",
                  },
                  "ref": null,
                  "rendered": Object {
                    "instance": null,
                    "key": undefined,
                    "nodeType": "class",
                    "props": Object {},
                    "ref": null,
                    "rendered": null,
                    "type": [Function],
                  },
                  "type": "div",
                },
                "type": "div",
              },
              Object {
                "instance": null,
                "key": undefined,
                "nodeType": "host",
                "props": Object {
                  "children": <div
                    className="col-xs-12"
                  >
                    <PartnerConferences
                      conferences={
                        Array [
                          Object {
                            "description": "Santiago de Chile",
                            "name": "SoCraTes Chile",
                            "url": "http://www.socrates-conference.cl/",
                          },
                          Object {
                            "description": "12 - 15 April 2018, Gran Canaria, Spain",
                            "name": "SoCraTes Canaries",
                            "url": "http://www.socracan.com",
                          },
                          Object {
                            "description": "24 - 26 May 2018, Rimini, Italy",
                            "name": "SoCraTes Italy",
                            "url": "http://www.socrates-conference.it/",
                          },
                          Object {
                            "description": "7 – 10 June 2018, Dorking, England",
                            "name": "SoCraTes UK",
                            "url": "http://socratesuk.org/",
                          },
                          Object {
                            "description": "Atlanta, GA, USA",
                            "name": "Software Craftsmanship Unconference",
                            "url": "http://scunconf.com/",
                          },
                          Object {
                            "description": "Munich, Germany",
                            "name": "JS CraftCamp",
                            "url": "http://jscraftcamp.org",
                          },
                          Object {
                            "description": "21 September 2018, Zurich, Switzerland",
                            "name": "SoCraTes Day Switzerland",
                            "url": "http://socrates-day.ch/",
                          },
                          Object {
                            "description": "Linz, Austria",
                            "name": "SoCraTes Days Linz",
                            "url": "http://socrates-conference.at/",
                          },
                          Object {
                            "description": "Rochegude, France",
                            "name": "SoCraTes France",
                            "url": "http://socrates-fr.github.io",
                          },
                          Object {
                            "description": "La Roche-en-Ardenne, Belgium",
                            "name": "SoCraTes BE",
                            "url": "http://socratesbe.org",
                          },
                          Object {
                            "description": "Kiilopää, Finland",
                            "name": "CodeFreeze",
                            "url": "http://www.codefreeze.fi/",
                          },
                          Object {
                            "description": "15 - 18 March 2018, Ftan, Switzerland",
                            "name": "SoCraTes Conference Switzerland",
                            "url": "http://socrates-ch.org/",
                          },
                          Object {
                            "description": "7 - 8 June 2018, Bucharest, Romania",
                            "name": "I T.A.K.E. Unconference",
                            "url": "http://itakeunconf.com/",
                          },
                        ]
                      }
                    />
                  </div>,
                  "className": "row column-left",
                },
                "ref": null,
                "rendered": Object {
                  "instance": null,
                  "key": undefined,
                  "nodeType": "host",
                  "props": Object {
                    "children": <PartnerConferences
                      conferences={
                        Array [
                          Object {
                            "description": "Santiago de Chile",
                            "name": "SoCraTes Chile",
                            "url": "http://www.socrates-conference.cl/",
                          },
                          Object {
                            "description": "12 - 15 April 2018, Gran Canaria, Spain",
                            "name": "SoCraTes Canaries",
                            "url": "http://www.socracan.com",
                          },
                          Object {
                            "description": "24 - 26 May 2018, Rimini, Italy",
                            "name": "SoCraTes Italy",
                            "url": "http://www.socrates-conference.it/",
                          },
                          Object {
                            "description": "7 – 10 June 2018, Dorking, England",
                            "name": "SoCraTes UK",
                            "url": "http://socratesuk.org/",
                          },
                          Object {
                            "description": "Atlanta, GA, USA",
                            "name": "Software Craftsmanship Unconference",
                            "url": "http://scunconf.com/",
                          },
                          Object {
                            "description": "Munich, Germany",
                            "name": "JS CraftCamp",
                            "url": "http://jscraftcamp.org",
                          },
                          Object {
                            "description": "21 September 2018, Zurich, Switzerland",
                            "name": "SoCraTes Day Switzerland",
                            "url": "http://socrates-day.ch/",
                          },
                          Object {
                            "description": "Linz, Austria",
                            "name": "SoCraTes Days Linz",
                            "url": "http://socrates-conference.at/",
                          },
                          Object {
                            "description": "Rochegude, France",
                            "name": "SoCraTes France",
                            "url": "http://socrates-fr.github.io",
                          },
                          Object {
                            "description": "La Roche-en-Ardenne, Belgium",
                            "name": "SoCraTes BE",
                            "url": "http://socratesbe.org",
                          },
                          Object {
                            "description": "Kiilopää, Finland",
                            "name": "CodeFreeze",
                            "url": "http://www.codefreeze.fi/",
                          },
                          Object {
                            "description": "15 - 18 March 2018, Ftan, Switzerland",
                            "name": "SoCraTes Conference Switzerland",
                            "url": "http://socrates-ch.org/",
                          },
                          Object {
                            "description": "7 - 8 June 2018, Bucharest, Romania",
                            "name": "I T.A.K.E. Unconference",
                            "url": "http://itakeunconf.com/",
                          },
                        ]
                      }
                    />,
                    "className": "col-xs-12",
                  },
                  "ref": null,
                  "rendered": Object {
                    "instance": null,
                    "key": undefined,
                    "nodeType": "function",
                    "props": Object {
                      "conferences": Array [
                        Object {
                          "description": "Santiago de Chile",
                          "name": "SoCraTes Chile",
                          "url": "http://www.socrates-conference.cl/",
                        },
                        Object {
                          "description": "12 - 15 April 2018, Gran Canaria, Spain",
                          "name": "SoCraTes Canaries",
                          "url": "http://www.socracan.com",
                        },
                        Object {
                          "description": "24 - 26 May 2018, Rimini, Italy",
                          "name": "SoCraTes Italy",
                          "url": "http://www.socrates-conference.it/",
                        },
                        Object {
                          "description": "7 – 10 June 2018, Dorking, England",
                          "name": "SoCraTes UK",
                          "url": "http://socratesuk.org/",
                        },
                        Object {
                          "description": "Atlanta, GA, USA",
                          "name": "Software Craftsmanship Unconference",
                          "url": "http://scunconf.com/",
                        },
                        Object {
                          "description": "Munich, Germany",
                          "name": "JS CraftCamp",
                          "url": "http://jscraftcamp.org",
                        },
                        Object {
                          "description": "21 September 2018, Zurich, Switzerland",
                          "name": "SoCraTes Day Switzerland",
                          "url": "http://socrates-day.ch/",
                        },
                        Object {
                          "description": "Linz, Austria",
                          "name": "SoCraTes Days Linz",
                          "url": "http://socrates-conference.at/",
                        },
                        Object {
                          "description": "Rochegude, France",
                          "name": "SoCraTes France",
                          "url": "http://socrates-fr.github.io",
                        },
                        Object {
                          "description": "La Roche-en-Ardenne, Belgium",
                          "name": "SoCraTes BE",
                          "url": "http://socratesbe.org",
                        },
                        Object {
                          "description": "Kiilopää, Finland",
                          "name": "CodeFreeze",
                          "url": "http://www.codefreeze.fi/",
                        },
                        Object {
                          "description": "15 - 18 March 2018, Ftan, Switzerland",
                          "name": "SoCraTes Conference Switzerland",
                          "url": "http://socrates-ch.org/",
                        },
                        Object {
                          "description": "7 - 8 June 2018, Bucharest, Romania",
                          "name": "I T.A.K.E. Unconference",
                          "url": "http://itakeunconf.com/",
                        },
                      ],
                    },
                    "ref": null,
                    "rendered": null,
                    "type": [Function],
                  },
                  "type": "div",
                },
                "type": "div",
              },
            ],
            "type": "div",
          },
          Object {
            "instance": null,
            "key": undefined,
            "nodeType": "host",
            "props": Object {
              "children": <div
                className="sidebar"
              >
                <Sponsoring />
              </div>,
              "className": "logocolumn col-sm-4 col-md-3 col-lg-4 col-md-offset-1 col-lg-offset-0",
            },
            "ref": null,
            "rendered": Object {
              "instance": null,
              "key": undefined,
              "nodeType": "host",
              "props": Object {
                "children": <Sponsoring />,
                "className": "sidebar",
              },
              "ref": null,
              "rendered": Object {
                "instance": null,
                "key": undefined,
                "nodeType": "function",
                "props": Object {},
                "ref": null,
                "rendered": null,
                "type": [Function],
              },
              "type": "div",
            },
            "type": "div",
          },
        ],
        "type": "div",
      },
      "type": "div",
    },
  ],
  Symbol(enzyme.__options__): Object {
    "adapter": ReactSixteenAdapter {
      "options": Object {
        "enableComponentDidUpdateOnSetState": true,
      },
    },
  },
}
`;
